&state
  sname = 'H₂O⁺ - doublet B2',
  megul = 722, ! unit to which output is saved
  iscat = 1,  ! no phase correction necessary for target
  symtyp = 2, ! D2h, C2v, etc. are of sym. type 2
  qntot  = 2,2,0, ! triplet of numbers, e.g. 1,0,0 means 1 = Singlet, 0 = A1, etc
  nelect = 9, ! number of electrons
  nob  = 151,98,98,63, ! total number of orbitals for each symmetry
  nob0 = 3,1,1,0, ! number of target orbitals for each symmetry
  nrefo = 2, ! Number of quintets in reforb
  reforb = 0,1,8,0,0, 2,1,1,0,0, ! reference determinant
  lndo = 10000000, ! memory control
/
&wfngrp
  gname = 'H₂O⁺ - doublet B2',
  qntar = -1,0,0, ! coupling control
  nelecg = 9, ! number of electrons to distribute among configurations
  nrefog = 2, ! number of reference determinants
  reforg = 0,1,8,0,0, 2,1,1,0,0, ! movable electrons
  ndprod = 1, ! number of sets of shells
  nelecp = 9, ! number of electrons in each set
  nshlp  = 3, ! number of shells (triplets) in each set
  pqn  = 0,1,3, 0,1,1, 0,1,1, ! orbitals in each shell
  mshl =   0,     1,     2,   ! symmetry of shells above
  npcupf = 1, ! print coupling information
/
