&input
  megul = 710, ! input from module CONGEN
  ukrmolp_ints = .true., !true if you run UKRmol+ suite, false for old version of code
&end
&cinorn
  name = 'H2+ - double Ag',
  nstat = 1, ! number of CI eigenvalues
  nciset = 1, ! index of calculated CI vectors within output file (0 = automatic indexing, but first must be 1)
  igh = 1,
&end
