&dipelminp
  lu_pw_dipoles= 142,143,144,
  nset_pw_dipoles= 1,1,1,
  format_pw_dipoles = 'FORMATTED',
/
&smooth
  ismooth=0,
  eleft=0.00,
 !lu_smoothed_pw_dipoles = 2421,2422,2423,
  format_smoothed_pw_dipoles = 'FORMATTED',
  ewidth=0.05d0,
/
&diptrans
  molecule_name='H₂O',
  no_targ_states=3,
  max_lcontinuum=4,
  ipunits=0,
 !ngrdproj=61,61,
  ngrdproj=1,1,
  scat_angle_limits=0,0,180,360,
  lab_component=3
/
