&input
  megul = 70,  ! input from module CONGEN
  nfte  = 80,  ! Hamiltonian scratch file
  icidg = 1,   ! 0 - do not diagonalize for parallel, 1 - do diagonalise Hamiltonian matrix for serial
  iexpc = 1,   ! prototype CI expansion flag - 1 for scattering calculation
  icitg = 1,   ! CI target flag - 1 = perform CI target contraction
  idiag = 2,   ! matrix element evaluation flag - 2 = do not evaluate pure target integrals
  nftg  = 26,  ! CI target vectors switch - 0 = use scattering wavefunctions to generated (phase corrected) target wavefunctions
  ntgsym = 2,  ! number of target state symmetries (>1 in CAS calculations)
  mcont = 0,1,   ! lambda value ('symmetry') of the continuum orbitals associated with each target state
  notgt = 177,162,  ! number of continuum orbitals associated with each target symmetry
  numtgt = 1,1,  ! number of target states for each symmetries
  ntgtf = 1,2,  ! set number, on unit NFTG, which contains the required target state
  ntgts = 1,1,  ! sequence number of the state within the set specified by NTGTF to be used as the target state
  ukrmolp_ints = .true., ! commented out if you do not run UKRmol+ suite
/
&cinorn
  name = 'H2O2 CI calculation - singlet A',
  NPFLG(1) = 0, ! no Hamiltonian matrix elements printed
  NPFLG(2) = 0, ! print lowest 20 eigenvalues only
  nciset = 1,
/
