&state
  sname = 'H2O2 - doublet B',
  megul = 721, ! unit to which output is saved
  iscat = 1,  ! no phase correction necessary for target
  symtyp = 2, ! D2h, C2v, etc. are of sym. type 2
  qntot  = 2,1,0, ! triplet of numbers, e.g. 1,0,0 means 1 = Singlet, 0 = A1, etc
  nelect = 17, ! number of electrons
  nob  = 182,166, ! total number of orbitals for each symmetry
  nob0 = 5,4, ! number of target orbitals for each symmetry
  nrefo = 2, ! Number of quintets in reforb
  reforb = 0,1,10,0,0, 1,1,7,0,0, ! reference determinant
  lndo = 10000000, ! memory control
/
&wfngrp
  gname = 'H2O2 - doublet B',
  qntar = -1,0,0, ! coupling control
  nelecg = 17, ! number of electrons to distribute among configurations
  nrefog = 2, ! number of reference determinants
  reforg = 0,1,10,0,0, 1,1,7,0,0, ! movable electrons
  ndprod = 2, ! number of sets of shells
  nelecp = 4,13, ! number of electrons in each set
  nshlp  = 2,2,  ! number of shells (triplets) in each set
  pqn  = 0,1,1, 0,1,1, 0,2,5, 0,2,4, ! orbitals in each shell
  mshl =   0,     1,     0,     1, ! symmetry of shells above
  npcupf = 1, ! print coupling information
/
