+-------------------------------------------------------------------------+
|              _              |                                           |
| || || ||//  | \          |  | University College London (C) 1994 - 2019 |
| || || ||    | / |/\/\ /\ |  | Open University           (C) 2007 - 2019 |
| \\_// ||\\  | \ | | | \/ |  |                                           |
|                             |                                           |
+-------------------------------------------------------------------------+
| Last revision: 2.0.2                                                    |
| Last author:   Jimena Gorfinkiel                                        |
| Last date:     Tue Mar 12 13:22:01 2019 +0000                           |
+-------------------------------------------------------------------------+

                    TARGET CDENPROP (2015) 

                    Bound state transition moments 



Number of target state symmetries:     2

Properties for target state symmetries with indices:     1    1

 WARNING: itarget_spin hard-coded to 2!!!


1-electron integrals read-in.

Number of types of property integrals:    9
 READING PROPERTIES FILE
 reading target states

 Transition moments
  Warning: ibra_or_ket_bound must be set to output dyson orbitals if iuse_bound=
 0 and both bra and ket contain continuum orbitals.

Properties for target state symmetries with indices:     1    2

1-electron integrals read-in.

Number of types of property integrals:    9
 READING PROPERTIES FILE
 reading target states

 Transition moments
  Warning: ibra_or_ket_bound must be set to output dyson orbitals if iuse_bound=
 0 and both bra and ket contain continuum orbitals.

Properties for target state symmetries with indices:     2    2

1-electron integrals read-in.

Number of types of property integrals:    9
 READING PROPERTIES FILE
 reading target states

 Transition moments
  Warning: ibra_or_ket_bound must be set to output dyson orbitals if iuse_bound=
 0 and both bra and ket contain continuum orbitals.
