
    -----------------------------------------------------------------------
          Psi4: An Open-Source Ab Initio Electronic Structure Package
                               Psi4 1.3 

                         Git: Rev {HEAD} 20e5c7e dirty


    R. M. Parrish, L. A. Burns, D. G. A. Smith, A. C. Simmonett,
    A. E. DePrince III, E. G. Hohenstein, U. Bozkaya, A. Yu. Sokolov,
    R. Di Remigio, R. M. Richard, J. F. Gonthier, A. M. James,
    H. R. McAlexander, A. Kumar, M. Saitow, X. Wang, B. P. Pritchard,
    P. Verma, H. F. Schaefer III, K. Patkowski, R. A. King, E. F. Valeev,
    F. A. Evangelista, J. M. Turney, T. D. Crawford, and C. D. Sherrill,
    J. Chem. Theory Comput. 13(7) pp 3185--3197 (2017).
    (doi: 10.1021/acs.jctc.7b00174)


                         Additional Contributions by
    P. Kraus, H. Kruse, M. H. Lechner, M. C. Schieber, R. A. Shaw,
    A. Alenaizan, R. Galvelis, Z. L. Glick, S. Lehtola, and J. P. Misiewicz

    -----------------------------------------------------------------------


    Psi4 started on: Tuesday, 26 March 2019 03:11PM

    Process ID: 24813
    Host:       toren.open.ac.uk
    PSIDATADIR: /home/physastro/rmatrix/software/gcc-8/psi4-1.3/share/psi4
    Memory:     500.0 MiB
    Threads:    1
    
  ==> Input File <==

--------------------------------------------------------------------------
molecule h2o {
    1  2            # charge, spin multiplicity

    symmetry C2v    # point group
    units    au     # units (ang/au)

    O   0.000000000   0.000000000  -0.123983110
    H   0.000000000   1.431150000   0.984126890
    H   0.000000000  -1.431150000   0.984126890
}

set basis     cc-pVTZ
set reference rohf
set maxiter   100

[E, wfn] = energy('scf', return_wfn=True)

molden(wfn, 'h2o+.molden')

--------------------------------------------------------------------------

*** tstart() called on toren.open.ac.uk
*** at Tue Mar 26 15:11:18 2019

   => Loading Basis Set <=

    Name: CC-PVTZ
    Role: ORBITAL
    Keyword: BASIS
    atoms 1   entry O          line   262 file /home/physastro/rmatrix/software/gcc-8/psi4-1.3/share/psi4/basis/cc-pvtz.gbs 
    atoms 2-3 entry H          line    23 file /home/physastro/rmatrix/software/gcc-8/psi4-1.3/share/psi4/basis/cc-pvtz.gbs 


         ---------------------------------------------------------
                                   SCF
               by Justin Turney, Rob Parrish, Andy Simmonett
                          and Daniel G. A. Smith
                             ROHF Reference
                        1 Threads,    500 MiB Core
         ---------------------------------------------------------

  ==> Geometry <==

    Molecular point group: c2v
    Full point group: C2v

    Geometry (in Bohr), charge = 1, multiplicity = 2:

       Center              X                  Y                   Z               Mass       
    ------------   -----------------  -----------------  -----------------  -----------------
         O            0.000000000000     0.000000000000    -0.124013990239    15.994914619570
         H           -0.000000000000     1.431150000000     0.984096009761     1.007825032230
         H            0.000000000000    -1.431150000000     0.984096009761     1.007825032230

  Running in c2v symmetry.

  Rotational constants: A =     27.38790  B =     14.58172  C =      9.51552 [cm^-1]
  Rotational constants: A = 821068.61558  B = 437148.99795  C = 285268.07977 [MHz]
  Nuclear repulsion =    9.189150964415226

  Charge       = 1
  Multiplicity = 2
  Electrons    = 9
  Nalpha       = 5
  Nbeta        = 4

  ==> Algorithm <==

  SCF Algorithm Type is DF.
  DIIS enabled.
  MOM disabled.
  Fractional occupation disabled.
  Guess Type is SAD.
  Energy threshold   = 1.00e-06
  Density threshold  = 1.00e-06
  Integral threshold = 0.00e+00

  ==> Primary Basis <==

  Basis Set: CC-PVTZ
    Blend: CC-PVTZ
    Number of shells: 22
    Number of basis function: 58
    Number of Cartesian functions: 65
    Spherical Harmonics?: true
    Max angular momentum: 3

   => Loading Basis Set <=

    Name: (CC-PVTZ AUX)
    Role: JKFIT
    Keyword: DF_BASIS_SCF
    atoms 1   entry O          line   229 file /home/physastro/rmatrix/software/gcc-8/psi4-1.3/share/psi4/basis/cc-pvtz-jkfit.gbs 
    atoms 2-3 entry H          line    51 file /home/physastro/rmatrix/software/gcc-8/psi4-1.3/share/psi4/basis/cc-pvtz-jkfit.gbs 

  ==> Pre-Iterations <==

   -------------------------------------------------------
    Irrep   Nso     Nmo     Nalpha   Nbeta   Ndocc  Nsocc
   -------------------------------------------------------
     A1        23      23       0       0       0       0
     A2         7       7       0       0       0       0
     B1        11      11       0       0       0       0
     B2        17      17       0       0       0       0
   -------------------------------------------------------
    Total      58      58       5       4       4       1
   -------------------------------------------------------

  ==> Integral Setup <==

  DFHelper Memory: AOs need 0.004 GiB; user supplied 0.366 GiB. Using in-core AOs.

  ==> MemDFJK: Density-Fitted J/K Matrices <==

    J tasked:                   Yes
    K tasked:                   Yes
    wK tasked:                   No
    OpenMP threads:               1
    Memory [MiB]:               375
    Algorithm:                 Core
    Schwarz Cutoff:           1E-12
    Mask sparsity (%):       0.0000
    Fitting Condition:        1E-10

   => Auxiliary Basis Set <=

  Basis Set: (CC-PVTZ AUX)
    Blend: CC-PVTZ-JKFIT
    Number of shells: 45
    Number of basis function: 139
    Number of Cartesian functions: 166
    Spherical Harmonics?: true
    Max angular momentum: 4

  Minimum eigenvalue in the overlap matrix is 2.5003351985E-03.
  Using Symmetric Orthogonalization.

  SCF Guess: Superposition of Atomic Densities via on-the-fly atomic UHF.

  ==> Iterations <==

                           Total Energy        Delta E     RMS |[F,P]|

   @DF-ROHF iter SAD:   -75.50078131279136   -7.55008e+01   0.00000e+00 
   @DF-ROHF iter   1:   -75.61535426202516   -1.14573e-01   6.05860e-03 DIIS
   @DF-ROHF iter   2:   -75.64865430193024   -3.33000e-02   1.82880e-03 DIIS
   @DF-ROHF iter   3:   -75.65070682044930   -2.05252e-03   6.10510e-04 DIIS
   @DF-ROHF iter   4:   -75.65094885461806   -2.42034e-04   9.69501e-05 DIIS
   @DF-ROHF iter   5:   -75.65096173203233   -1.28774e-05   2.63753e-05 DIIS
   @DF-ROHF iter   6:   -75.65096242700477   -6.94972e-07   2.23023e-06 DIIS
   @DF-ROHF iter   7:   -75.65096243638069   -9.37592e-09   3.38479e-07 DIIS
  Energy and wave function converged.


  ==> Post-Iterations <==

    Orbital Energies [Eh]
    ---------------------

    Doubly Occupied:                                                      

       1A1   -21.110582     2A1    -1.831466     1B2    -1.198702  
       3A1    -1.072462  

    Singly Occupied:                                                      

       1B1    -0.699004  

    Virtual:                                                              

       4A1    -0.151885     2B2    -0.073892     3B2     0.192724  
       5A1     0.246221     6A1     0.310827     2B1     0.390670  
       7A1     0.445188     4B2     0.458676     1A2     0.493898  
       3B1     0.591687     8A1     0.734468     5B2     0.852518  
       6B2     1.143478     9A1     1.171204     4B1     1.593127  
       2A2     1.620100     7B2     1.656745    10A1     1.740256  
      11A1     1.795561    12A1     2.169796     8B2     2.528988  
       5B1     2.930560    13A1     3.067829     3A2     3.153662  
       9B2     3.247209     6B1     3.328988    10B2     3.448077  
      14A1     3.485011     4A2     3.542688     7B1     3.596854  
      11B2     3.654550    15A1     3.750931     5A2     3.885689  
      16A1     3.952891    12B2     4.164803     8B1     4.191620  
      13B2     4.430931    17A1     4.685577    18A1     4.771058  
      14B2     5.026875     9B1     5.552190    19A1     6.082155  
      10B1     6.406107     6A2     6.415635    11B1     6.494607  
      20A1     6.528847    15B2     6.588216    21A1     6.666584  
       7A2     6.742129    22A1     6.963868    16B2     7.321125  
      17B2     7.806931    23A1    12.381863  

    Final Occupation by Irrep:
             A1    A2    B1    B2 
    DOCC [     3,    0,    0,    1 ]
    SOCC [     0,    0,    1,    0 ]

  @DF-ROHF Final Energy:   -75.65096243638069

   => Energetics <=

    Nuclear Repulsion Energy =              9.1891509644152265
    One-Electron Energy =                -118.1323421123819628
    Two-Electron Energy =                  33.2922287115860485
    Total Energy =                        -75.6509624363806807

Computation Completed


Properties will be evaluated at   0.000000,   0.000000,   0.000000 [a0]

Properties computed using the SCF density matrix

  Nuclear Dipole Moment: [e a0]
     X:     0.0000      Y:     0.0000      Z:     0.9761

  Electronic Dipole Moment: [e a0]
     X:     0.0000      Y:     0.0000      Z:    -0.0030

  Dipole Moment: [e a0]
     X:     0.0000      Y:     0.0000      Z:     0.9731     Total:     0.9731

  Dipole Moment: [D]
     X:     0.0000      Y:     0.0000      Z:     2.4734     Total:     2.4734


*** tstop() called on toren.open.ac.uk at Tue Mar 26 15:11:19 2019
Module time:
	user time   =       0.52 seconds =       0.01 minutes
	system time =       0.01 seconds =       0.00 minutes
	total time  =          1 seconds =       0.02 minutes
Total time:
	user time   =       0.52 seconds =       0.01 minutes
	system time =       0.01 seconds =       0.00 minutes
	total time  =          1 seconds =       0.02 minutes

    Psi4 stopped on: Tuesday, 26 March 2019 03:11PM
    Psi4 wall time for execution: 0:00:00.76

*** Psi4 exiting successfully. Buy a developer a beer!
